%YAML 1.1
%TAG !u! tag:unity3d.com,2011:
--- !u!74 &7400000
AnimationClip:
  m_ObjectHideFlags: 0
  m_CorrespondingSourceObject: {fileID: 0}
  m_PrefabInstance: {fileID: 0}
  m_PrefabAsset: {fileID: 0}
  m_Name: Shield Body - Shoot
  serializedVersion: 6
  m_Legacy: 0
  m_Compressed: 0
  m_UseHighQualityCurve: 1
  m_RotationCurves: []
  m_CompressedRotationCurves: []
  m_EulerCurves: []
  m_PositionCurves: []
  m_ScaleCurves: []
  m_FloatCurves: []
  m_PPtrCurves:
  - curve:
    - time: 0
      value: {fileID: -8450898167706431726, guid: 951e24a55acf48748ba7980d27cf088c,
        type: 3}
    - time: 0.041666668
      value: {fileID: 5001138179233991926, guid: 951e24a55acf48748ba7980d27cf088c,
        type: 3}
    - time: 0.083333336
      value: {fileID: -3799829264599755124, guid: 951e24a55acf48748ba7980d27cf088c,
        type: 3}
    - time: 0.375
      value: {fileID: -3799829264599755124, guid: 951e24a55acf48748ba7980d27cf088c,
        type: 3}
    - time: 0.41666666
      value: {fileID: -1953287553069097029, guid: 951e24a55acf48748ba7980d27cf088c,
        type: 3}
    - time: 0.6666667
      value: {fileID: -3799829264599755124, guid: 951e24a55acf48748ba7980d27cf088c,
        type: 3}
    - time: 0.7083333
      value: {fileID: -2796354193844696265, guid: 951e24a55acf48748ba7980d27cf088c,
        type: 3}
    - time: 0.75
      value: {fileID: -8609094254740115963, guid: 951e24a55acf48748ba7980d27cf088c,
        type: 3}
    - time: 0.7916667
      value: {fileID: -6424518006794596517, guid: 951e24a55acf48748ba7980d27cf088c,
        type: 3}
    - time: 0.8333333
      value: {fileID: -6655198018179547118, guid: 951e24a55acf48748ba7980d27cf088c,
        type: 3}
    - time: 0.875
      value: {fileID: 6024837978681237603, guid: 951e24a55acf48748ba7980d27cf088c,
        type: 3}
    - time: 0.9166667
      value: {fileID: 2108769198773808654, guid: 951e24a55acf48748ba7980d27cf088c,
        type: 3}
    - time: 0.9583333
      value: {fileID: 3791299364959925755, guid: 951e24a55acf48748ba7980d27cf088c,
        type: 3}
    attribute: m_Sprite
    path: 
    classID: 212
    script: {fileID: 0}
  m_SampleRate: 24
  m_WrapMode: 0
  m_Bounds:
    m_Center: {x: 0, y: 0, z: 0}
    m_Extent: {x: 0, y: 0, z: 0}
  m_ClipBindingConstant:
    genericBindings:
    - serializedVersion: 2
      path: 0
      attribute: 0
      script: {fileID: 0}
      typeID: 212
      customType: 23
      isPPtrCurve: 1
    pptrCurveMapping:
    - {fileID: -8450898167706431726, guid: 951e24a55acf48748ba7980d27cf088c, type: 3}
    - {fileID: 5001138179233991926, guid: 951e24a55acf48748ba7980d27cf088c, type: 3}
    - {fileID: -3799829264599755124, guid: 951e24a55acf48748ba7980d27cf088c, type: 3}
    - {fileID: -3799829264599755124, guid: 951e24a55acf48748ba7980d27cf088c, type: 3}
    - {fileID: -1953287553069097029, guid: 951e24a55acf48748ba7980d27cf088c, type: 3}
    - {fileID: -3799829264599755124, guid: 951e24a55acf48748ba7980d27cf088c, type: 3}
    - {fileID: -2796354193844696265, guid: 951e24a55acf48748ba7980d27cf088c, type: 3}
    - {fileID: -8609094254740115963, guid: 951e24a55acf48748ba7980d27cf088c, type: 3}
    - {fileID: -6424518006794596517, guid: 951e24a55acf48748ba7980d27cf088c, type: 3}
    - {fileID: -6655198018179547118, guid: 951e24a55acf48748ba7980d27cf088c, type: 3}
    - {fileID: 6024837978681237603, guid: 951e24a55acf48748ba7980d27cf088c, type: 3}
    - {fileID: 2108769198773808654, guid: 951e24a55acf48748ba7980d27cf088c, type: 3}
    - {fileID: 3791299364959925755, guid: 951e24a55acf48748ba7980d27cf088c, type: 3}
  m_AnimationClipSettings:
    serializedVersion: 2
    m_AdditiveReferencePoseClip: {fileID: 0}
    m_AdditiveReferencePoseTime: 0
    m_StartTime: 0
    m_StopTime: 1
    m_OrientationOffsetY: 0
    m_Level: 0
    m_CycleOffset: 0
    m_HasAdditiveReferencePose: 0
    m_LoopTime: 1
    m_LoopBlend: 0
    m_LoopBlendOrientation: 0
    m_LoopBlendPositionY: 0
    m_LoopBlendPositionXZ: 0
    m_KeepOriginalOrientation: 0
    m_KeepOriginalPositionY: 1
    m_KeepOriginalPositionXZ: 0
    m_HeightFromFeet: 0
    m_Mirror: 0
  m_EditorCurves: []
  m_EulerEditorCurves: []
  m_HasGenericRootTransform: 0
  m_HasMotionFloatCurves: 0
  m_Events:
  - time: 0.6666667
    functionName: FireBullet
    data: 
    objectReferenceParameter: {fileID: 0}
    floatParameter: 0
    intParameter: 0
    messageOptions: 0
  - time: 0.9583333
    functionName: StopShootAnim
    data: 
    objectReferenceParameter: {fileID: 0}
    floatParameter: 0
    intParameter: 0
    messageOptions: 0
