%YAML 1.1
%TAG !u! tag:unity3d.com,2011:
--- !u!114 &11400000
MonoBehaviour:
  m_ObjectHideFlags: 0
  m_CorrespondingSourceObject: {fileID: 0}
  m_PrefabInstance: {fileID: 0}
  m_PrefabAsset: {fileID: 0}
  m_GameObject: {fileID: 0}
  m_Enabled: 1
  m_EditorHideFlags: 0
  m_Script: {fileID: 11500000, guid: 9d1e9b43f1b0da945a3f0886de501ffb, type: 3}
  m_Name: EnemySpawn1-2a
  m_EditorClassIdentifier: 
  prefab:
  - {fileID: 1701569150355328820, guid: fee397209efc6b94d897aedb0c4ef3f1, type: 3}
  numberOfPrefabsToCreate: 1
  spawnPoints:
  - {x: 118.43, y: 11.88, z: -0.09691649}
  scaleSize:
  - {x: 0.2, y: 0.2, z: 1}
  rotationSize:
  - {x: 0, y: 0, z: 0}
  prefabIndexes: 00000000
