%YAML 1.1
%TAG !u! tag:unity3d.com,2011:
--- !u!114 &11400000
MonoBehaviour:
  m_ObjectHideFlags: 0
  m_CorrespondingSourceObject: {fileID: 0}
  m_PrefabInstance: {fileID: 0}
  m_PrefabAsset: {fileID: 0}
  m_GameObject: {fileID: 0}
  m_Enabled: 1
  m_EditorHideFlags: 0
  m_Script: {fileID: 11500000, guid: 9d1e9b43f1b0da945a3f0886de501ffb, type: 3}
  m_Name: GateSpawn1-Boss
  m_EditorClassIdentifier: 
  prefab:
  - {fileID: 7596387525626040844, guid: 4ec426f0738839648917671278413682, type: 3}
  - {fileID: 733173049832711713, guid: 5cce3d0005cc1334db7e3594c37905f1, type: 3}
  numberOfPrefabsToCreate: 3
  spawnPoints:
  - {x: 190.97, y: 85.59, z: 1}
  - {x: 236.22, y: 104.94, z: 1}
  - {x: 214.6, y: 88.9, z: -47.2807}
  scaleSize:
  - {x: 0.49, y: 0.91, z: 1}
  - {x: 2, y: 4, z: 1}
  - {x: 1, y: 1, z: 1}
  rotationSize:
  - {x: 0, y: 0, z: 0}
  - {x: 0, y: 0, z: 0}
  - {x: 0, y: 0, z: 0}
  prefabIndexes: 000000000000000001000000
