%YAML 1.1
%TAG !u! tag:unity3d.com,2011:
--- !u!1001 &8731759451916093741
PrefabInstance:
  m_ObjectHideFlags: 0
  serializedVersion: 2
  m_Modification:
    m_TransformParent: {fileID: 0}
    m_Modifications:
    - target: {fileID: 100004, guid: 7867af58a6ec48846ae807eb4022fbaa, type: 3}
      propertyPath: m_Name
      value: EnemyDies (Shield)
      objectReference: {fileID: 0}
    - target: {fileID: 400004, guid: 7867af58a6ec48846ae807eb4022fbaa, type: 3}
      propertyPath: m_LocalPosition.x
      value: 5.5382667
      objectReference: {fileID: 0}
    - target: {fileID: 400004, guid: 7867af58a6ec48846ae807eb4022fbaa, type: 3}
      propertyPath: m_LocalPosition.y
      value: -2.305653
      objectReference: {fileID: 0}
    - target: {fileID: 400004, guid: 7867af58a6ec48846ae807eb4022fbaa, type: 3}
      propertyPath: m_LocalPosition.z
      value: 0
      objectReference: {fileID: 0}
    - target: {fileID: 400004, guid: 7867af58a6ec48846ae807eb4022fbaa, type: 3}
      propertyPath: m_LocalRotation.x
      value: 0.7071069
      objectReference: {fileID: 0}
    - target: {fileID: 400004, guid: 7867af58a6ec48846ae807eb4022fbaa, type: 3}
      propertyPath: m_LocalRotation.y
      value: 0
      objectReference: {fileID: 0}
    - target: {fileID: 400004, guid: 7867af58a6ec48846ae807eb4022fbaa, type: 3}
      propertyPath: m_LocalRotation.z
      value: 0
      objectReference: {fileID: 0}
    - target: {fileID: 400004, guid: 7867af58a6ec48846ae807eb4022fbaa, type: 3}
      propertyPath: m_LocalRotation.w
      value: 0.70710677
      objectReference: {fileID: 0}
    - target: {fileID: 400004, guid: 7867af58a6ec48846ae807eb4022fbaa, type: 3}
      propertyPath: m_RootOrder
      value: 0
      objectReference: {fileID: 0}
    - target: {fileID: 400004, guid: 7867af58a6ec48846ae807eb4022fbaa, type: 3}
      propertyPath: m_LocalEulerAnglesHint.x
      value: 0
      objectReference: {fileID: 0}
    - target: {fileID: 400004, guid: 7867af58a6ec48846ae807eb4022fbaa, type: 3}
      propertyPath: m_LocalEulerAnglesHint.y
      value: 0
      objectReference: {fileID: 0}
    - target: {fileID: 400004, guid: 7867af58a6ec48846ae807eb4022fbaa, type: 3}
      propertyPath: m_LocalEulerAnglesHint.z
      value: 0
      objectReference: {fileID: 0}
    - target: {fileID: 19800000, guid: 7867af58a6ec48846ae807eb4022fbaa, type: 3}
      propertyPath: InitialModule.startSizeY.minMaxState
      value: 3
      objectReference: {fileID: 0}
    - target: {fileID: 19800000, guid: 7867af58a6ec48846ae807eb4022fbaa, type: 3}
      propertyPath: InitialModule.startSizeZ.minMaxState
      value: 3
      objectReference: {fileID: 0}
    - target: {fileID: 19800006, guid: 7867af58a6ec48846ae807eb4022fbaa, type: 3}
      propertyPath: InitialModule.startSizeY.minMaxState
      value: 3
      objectReference: {fileID: 0}
    - target: {fileID: 19800006, guid: 7867af58a6ec48846ae807eb4022fbaa, type: 3}
      propertyPath: InitialModule.startSizeZ.minMaxState
      value: 3
      objectReference: {fileID: 0}
    - target: {fileID: 19900000, guid: 7867af58a6ec48846ae807eb4022fbaa, type: 3}
      propertyPath: m_SortingLayerID
      value: -413927105
      objectReference: {fileID: 0}
    - target: {fileID: 19900000, guid: 7867af58a6ec48846ae807eb4022fbaa, type: 3}
      propertyPath: m_SortingLayer
      value: 2
      objectReference: {fileID: 0}
    - target: {fileID: 19900000, guid: 7867af58a6ec48846ae807eb4022fbaa, type: 3}
      propertyPath: m_SortingOrder
      value: 12
      objectReference: {fileID: 0}
    - target: {fileID: 19900002, guid: 7867af58a6ec48846ae807eb4022fbaa, type: 3}
      propertyPath: m_SortingLayerID
      value: -413927105
      objectReference: {fileID: 0}
    - target: {fileID: 19900002, guid: 7867af58a6ec48846ae807eb4022fbaa, type: 3}
      propertyPath: m_SortingLayer
      value: 2
      objectReference: {fileID: 0}
    - target: {fileID: 19900002, guid: 7867af58a6ec48846ae807eb4022fbaa, type: 3}
      propertyPath: m_SortingOrder
      value: 12
      objectReference: {fileID: 0}
    - target: {fileID: 19900004, guid: 7867af58a6ec48846ae807eb4022fbaa, type: 3}
      propertyPath: m_SortingLayerID
      value: -413927105
      objectReference: {fileID: 0}
    - target: {fileID: 19900004, guid: 7867af58a6ec48846ae807eb4022fbaa, type: 3}
      propertyPath: m_SortingLayer
      value: 2
      objectReference: {fileID: 0}
    - target: {fileID: 19900004, guid: 7867af58a6ec48846ae807eb4022fbaa, type: 3}
      propertyPath: m_SortingOrder
      value: 12
      objectReference: {fileID: 0}
    - target: {fileID: 19900006, guid: 7867af58a6ec48846ae807eb4022fbaa, type: 3}
      propertyPath: m_SortingLayerID
      value: -413927105
      objectReference: {fileID: 0}
    - target: {fileID: 19900006, guid: 7867af58a6ec48846ae807eb4022fbaa, type: 3}
      propertyPath: m_SortingLayer
      value: 2
      objectReference: {fileID: 0}
    - target: {fileID: 19900006, guid: 7867af58a6ec48846ae807eb4022fbaa, type: 3}
      propertyPath: m_SortingOrder
      value: 12
      objectReference: {fileID: 0}
    m_RemovedComponents: []
  m_SourcePrefab: {fileID: 100100000, guid: 7867af58a6ec48846ae807eb4022fbaa, type: 3}
