%YAML 1.1
%TAG !u! tag:unity3d.com,2011:
--- !u!1001 &4352826612794677832
PrefabInstance:
  m_ObjectHideFlags: 0
  serializedVersion: 2
  m_Modification:
    m_TransformParent: {fileID: 0}
    m_Modifications:
    - target: {fileID: 100000, guid: f06e78284f831ae469c74624ab5d513b, type: 3}
      propertyPath: m_Name
      value: Hit White Large
      objectReference: {fileID: 0}
    - target: {fileID: 400000, guid: f06e78284f831ae469c74624ab5d513b, type: 3}
      propertyPath: m_LocalPosition.x
      value: -1.7918639
      objectReference: {fileID: 0}
    - target: {fileID: 400000, guid: f06e78284f831ae469c74624ab5d513b, type: 3}
      propertyPath: m_LocalPosition.y
      value: -0.6497968
      objectReference: {fileID: 0}
    - target: {fileID: 400000, guid: f06e78284f831ae469c74624ab5d513b, type: 3}
      propertyPath: m_LocalPosition.z
      value: 0
      objectReference: {fileID: 0}
    - target: {fileID: 400000, guid: f06e78284f831ae469c74624ab5d513b, type: 3}
      propertyPath: m_LocalRotation.x
      value: -0
      objectReference: {fileID: 0}
    - target: {fileID: 400000, guid: f06e78284f831ae469c74624ab5d513b, type: 3}
      propertyPath: m_LocalRotation.y
      value: -0
      objectReference: {fileID: 0}
    - target: {fileID: 400000, guid: f06e78284f831ae469c74624ab5d513b, type: 3}
      propertyPath: m_LocalRotation.z
      value: -0
      objectReference: {fileID: 0}
    - target: {fileID: 400000, guid: f06e78284f831ae469c74624ab5d513b, type: 3}
      propertyPath: m_LocalRotation.w
      value: 1
      objectReference: {fileID: 0}
    - target: {fileID: 400000, guid: f06e78284f831ae469c74624ab5d513b, type: 3}
      propertyPath: m_RootOrder
      value: 0
      objectReference: {fileID: 0}
    - target: {fileID: 400000, guid: f06e78284f831ae469c74624ab5d513b, type: 3}
      propertyPath: m_LocalEulerAnglesHint.x
      value: 0
      objectReference: {fileID: 0}
    - target: {fileID: 400000, guid: f06e78284f831ae469c74624ab5d513b, type: 3}
      propertyPath: m_LocalEulerAnglesHint.y
      value: 0
      objectReference: {fileID: 0}
    - target: {fileID: 400000, guid: f06e78284f831ae469c74624ab5d513b, type: 3}
      propertyPath: m_LocalEulerAnglesHint.z
      value: 0
      objectReference: {fileID: 0}
    - target: {fileID: 400000, guid: f06e78284f831ae469c74624ab5d513b, type: 3}
      propertyPath: m_LocalScale.x
      value: 0.6563604
      objectReference: {fileID: 0}
    - target: {fileID: 400000, guid: f06e78284f831ae469c74624ab5d513b, type: 3}
      propertyPath: m_LocalScale.y
      value: 0.6563604
      objectReference: {fileID: 0}
    - target: {fileID: 400000, guid: f06e78284f831ae469c74624ab5d513b, type: 3}
      propertyPath: m_LocalScale.z
      value: 1.4557219
      objectReference: {fileID: 0}
    - target: {fileID: 19800000, guid: f06e78284f831ae469c74624ab5d513b, type: 3}
      propertyPath: lengthInSec
      value: 2.1
      objectReference: {fileID: 0}
    - target: {fileID: 19800000, guid: f06e78284f831ae469c74624ab5d513b, type: 3}
      propertyPath: looping
      value: 1
      objectReference: {fileID: 0}
    - target: {fileID: 19800000, guid: f06e78284f831ae469c74624ab5d513b, type: 3}
      propertyPath: startDelay.scalar
      value: 0.3
      objectReference: {fileID: 0}
    - target: {fileID: 19900000, guid: f06e78284f831ae469c74624ab5d513b, type: 3}
      propertyPath: m_SortingLayerID
      value: 1227141507
      objectReference: {fileID: 0}
    - target: {fileID: 19900000, guid: f06e78284f831ae469c74624ab5d513b, type: 3}
      propertyPath: m_SortingLayer
      value: -2
      objectReference: {fileID: 0}
    - target: {fileID: 19900000, guid: f06e78284f831ae469c74624ab5d513b, type: 3}
      propertyPath: m_SortingOrder
      value: -1
      objectReference: {fileID: 0}
    m_RemovedComponents: []
  m_SourcePrefab: {fileID: 100100000, guid: f06e78284f831ae469c74624ab5d513b, type: 3}
