%YAML 1.1
%TAG !u! tag:unity3d.com,2011:
--- !u!78 &1
TagManager:
  serializedVersion: 2
  tags:
  - enemy
  - encounter
  - Game Manager
  - obstacle
  - environment
  - Moving Platform
  - Player HUD
  - ThePlayer
  - FxTemporaire
  - Hittable
  - Damage
  - Flu
  - Win Menu
  layers:
  - Default
  - TransparentFX
  - Ignore Raycast
  - 
  - Water
  - UI
  - 
  - 
  - Player
  - Collision
  - Background
  - Ground
  - Action
  - Enemy
  - 
  - 
  - 
  - 
  - 
  - 
  - 
  - 
  - 
  - 
  - 
  - 
  - 
  - 
  - 
  - 
  - 
  - 
  m_SortingLayers:
  - name: AnimBG
    uniqueID: 1227141507
    locked: 0
  - name: Background
    uniqueID: 2014996071
    locked: 0
  - name: Default
    uniqueID: 0
    locked: 0
  - name: Gameplay
    uniqueID: 1527120285
    locked: 0
  - name: AnimFG
    uniqueID: 3881040191
    locked: 0
  - name: UI
    uniqueID: 450196895
    locked: 0
